{

  "app_debug": false,

  "run_host": "0.0.0.0",
  "run_port": 8080,

  "main_name": "__APP_NAME__",
  "main_env": "dev",
  "main_loglevel": "INFO",

  "etc_system_locale": "ru_RU",
  "etc_routes_rpc": "/public/rpc",
  "etc_sentry_enabled": false,
  "etc_sentry_dsn": "",
  "etc_sentry_sample_rate": 1.0,
  "etc_sentry_traces_sample_rate": 0.1,

  "services_db_init_db": true,
  "services_db_host": "0.0.0.0",
  "services_db_port": 5432,
  "services_db_database": "app",
  "services_db_root_user": "postgres",
  "services_db_root_password": "postgres",
  "services_db_user": "elemento",
  "services_db_password": "elemento",
  "services_db_poll_min_size": 4,
  "services_db_poll_max_size": 16,

  "services_redis_host": "0.0.0.0",
  "services_redis_port": 6379,
  "services_redis_db": 0,
  "services_redis_password": null,

  "services_rpc_system_permission_key": "system",
  "services_rpc_guest_permission_key": "guest",
  "services_rpc_default_request_time": 60,
  "services_rpc_max_request_time": 120,

  "services_tasks_executor_enabled": false,
  "services_tasks_manager_enabled": false,
  "services_tasks_manager_namespace": "__APP_NAME__",

  "services_streams_rpc_topic": "rpc",
  "services_streams_group_id": "elemento",
  "services_streams_redis_listener_enabled": true,
  "services_streams_kafka_listener_enabled": false,
  "services_streams_kafka_bootstrap_servers": "0.0.0.0:9092"

}
